module article

go 1.17

require (
	github.com/gin-gonic/gin v1.7.4
	github.com/jmoiron/sqlx v1.3.4
	github.com/joho/godotenv v1.4.0
	github.com/lib/pq v1.10.4
	github.com/spf13/cast v1.4.1
	github.com/swaggo/gin-swagger v1.3.3
	github.com/swaggo/swag v1.7.4
)

require (
	github.com/KyleBanks/depth v1.2.1 // indirect
	github.com/PuerkitoBio/purell v1.1.1 // indirect
	github.com/PuerkitoBio/urlesc v0.0.0-20170810143723-de5bf2ad4578 // indirect
	github.com/gin-contrib/sse v0.1.0 // indirect
	github.com/go-openapi/jsonpointer v0.19.5 // indirect
	github.com/go-openapi/jsonreference v0.19.6 // indirect
	github.com/go-openapi/spec v0.20.4 // indirect
	github.com/go-openapi/swag v0.19.15 // indirect
	github.com/go-playground/locales v0.13.0 // indirect
	github.com/go-playground/universal-translator v0.17.0 // indirect
	github.com/go-playground/validator/v10 v10.4.1 // indirect
	github.com/golang/protobuf v1.3.3 // indirect
	github.com/josharian/intern v1.0.0 // indirect
	github.com/json-iterator/go v1.1.9 // indirect
	github.com/leodido/go-urn v1.2.0 // indirect
	github.com/mailru/easyjson v0.7.7 // indirect
	github.com/mattn/go-isatty v0.0.14 // indirect
	github.com/modern-go/concurrent v0.0.0-20180228061459-e0a39a4cb421 // indirect
	github.com/modern-go/reflect2 v0.0.0-20180701023420-4b7aa43c6742 // indirect
	github.com/ugorji/go/codec v1.1.7 // indirect
	golang.org/x/crypto v0.0.0-20200622213623-75b288015ac9 // indirect
	golang.org/x/net v0.0.0-20211109214657-ef0fda0de508 // indirect
	golang.org/x/sys v0.0.0-20211110154304-99a53858aa08 // indirect
	golang.org/x/text v0.3.7 // indirect
	golang.org/x/tools v0.1.7 // indirect
	gopkg.in/yaml.v2 v2.4.0 // indirect
)
